<?xml version="1.0" encoding="utf-8"?>
<!-- Generator: Adobe Illustrator 16.0.3, SVG Export Plug-In . SVG Version: 6.00 Build 0)  -->
<!DOCTYPE svg PUBLIC "-//W3C//DTD SVG 1.1//EN" "http://www.w3.org/Graphics/SVG/1.1/DTD/svg11.dtd">
<svg version="1.1" id="Ebene_1" xmlns="http://www.w3.org/2000/svg" xmlns:xlink="http://www.w3.org/1999/xlink" x="0px" y="0px"
	 width="100px" height="50px" viewBox="0 0 100 50" enable-background="new 0 0 100 50" xml:space="preserve">
<line fill="#FFFFFF" stroke-width="5" stroke="#F2F2F2" stroke-linecap="round" stroke-linejoin="round" stroke-miterlimit="10" x1="-0.428" y1="-0.089" x2="50.485" y2="50"/>
<line fill="#FFFFFF" stroke-width="5" stroke="#F2F2F2" stroke-linecap="round" stroke-linejoin="round" stroke-miterlimit="10" x1="100" y1="-0.089" x2="50.485" y2="50"/>
</svg>
